IS415: Geospatial Analytics & Applications - Take-home Exercise 2
…
  return(final_file)
}

Referencing senior - Megan’s - work here and using lapply function, aspatial files are fed into the pre-processing function and outputs are stored in the variable dflist.

fileslist <-list.files(path = "data/aspatial", pattern = "*.xlsx", full.names=TRUE)

dflist <- lapply(seq_along(fileslist), function(x) aspatialfunc(fileslist[x]))

Checking dflist

head(dflist)

[[1]]
# A tibble: 267 × 7
   `KODE KELURAHAN` `WILAYAH KOTA`  KECAMATAN   KELURAHAN SASARAN `BELUM VAKSIN`
   <chr>            <chr>           <chr>       <chr>       <dbl>          <dbl>
 1 3172051003       JAKARTA UTARA   PADEMANGAN  ANCOL       23947           4592
 2 3173041007       JAKARTA BARAT   TAMBORA     ANGKE       29381           5319
 3 3175041005       JAKARTA TIMUR   KRAMAT JATI BALE KAM…   29074           5903
 4 3175031003       JAKARTA TIMUR   JATINEGARA  BALI MES…    9752           1649
 5 3175101006       JAKARTA TIMUR   CIPAYUNG    BAMBU AP…   26285           4030
 6 3174031002       JAKARTA SELATAN MAMPANG PR… BANGKA      21566           3950
 7 3175051002       JAKARTA TIMUR   PASAR REBO  BARU        23886           3344
 8 3175041004       JAKARTA TIMUR   KRAMAT JATI BATU AMP…   47898           9382
 9 3171071002       JAKARTA PUSAT   TANAH ABANG BENDUNGA…   21494           3772
10 3175031002       JAKARTA TIMUR   JATINEGARA  BIDARA C…   36689           7530
# ℹ 257 more rows
# ℹ 1 more variable: date <chr>

[[2]]
# A tibble: 267 × 7
   `KODE KELURAHAN` `WILAYAH KOTA`  KECAMATAN   KELURAHAN SASARAN `BELUM VAKSIN`
   <chr>            <chr>           <chr>       <chr>       <dbl>          <dbl>
 1 3172051003       JAKARTA UTARA   PADEMANGAN  ANCOL       23947           4449
 2 3173041007       JAKARTA BARAT   TAMBORA     ANGKE       29381           5101
 3 3175041005       JAKARTA TIMUR   KRAMAT JATI BALE KAM…   29074           5699
 4 3175031003       JAKARTA TIMUR   JATINEGARA  BALI MES…    9752           1598
 5 3175101006       JAKARTA TIMUR   CIPAYUNG    BAMBU AP…   26285           3857
 6 3174031002       JAKARTA SELATAN MAMPANG PR… BANGKA      21566           3818
 7 3175051002       JAKARTA TIMUR   PASAR REBO  BARU        23886           3160
 8 3175041004       JAKARTA TIMUR   KRAMAT JATI BATU AMP…   47898           9041
 9 3171071002       JAKARTA PUSAT   TANAH ABANG BENDUNGA…   21494           3627
10 3175031002       JAKARTA TIMUR   JATINEGARA  BIDARA C…   36689           7172
# ℹ 257 more rows
# ℹ 1 more variable: date <chr>

[[3]]
# A tibble: 267 × 7
   `KODE KELURAHAN` `WILAYAH KOTA`  KECAMATAN   KELURAHAN SASARAN `BELUM VAKSIN`
   <chr>            <chr>           <chr>       <chr>       <dbl>          <dbl>
 1 3172051003       JAKARTA UTARA   PADEMANGAN  ANCOL       23947           4402
 2 3173041007       JAKARTA BARAT   TAMBORA     ANGKE       29381           5041
 3 3175041005       JAKARTA TIMUR   KRAMAT JATI BALE KAM…   29074           5632
 4 3175031003       JAKARTA TIMUR   JATINEGARA  BALI MES…    9752           1576
 5 3175101006       JAKARTA TIMUR   CIPAYUNG    BAMBU AP…   26285           3791
 6 3174031002       JAKARTA SELATAN MAMPANG PR… BANGKA      21566           3778
 7 3175051002       JAKARTA TIMUR   PASAR REBO  BARU        23886           3110
 8 3175041004       JAKARTA TIMUR   KRAMAT JATI BATU AMP…   47898           8917
 9 3171071002       JAKARTA PUSAT   TANAH ABANG BENDUNGA…   21494           3580
10 3175031002       JAKARTA TIMUR   JATINEGARA  BIDARA C…   36689           7071
# ℹ 257 more rows
# ℹ 1 more variable: date <chr>

[[4]]
# A tibble: 267 × 7
   `KODE KELURAHAN` `WILAYAH KOTA`  KECAMATAN   KELURAHAN SASARAN `BELUM VAKSIN`
   <chr>            <chr>           <chr>       <chr>       <dbl>          <dbl>
 1 3172051003       JAKARTA UTARA   PADEMANGAN  ANCOL       23947           5527
 2 3173041007       JAKARTA BARAT   TAMBORA     ANGKE       29381           5986
 3 3175041005       JAKARTA TIMUR   KRAMAT JATI BALE KAM…   29074           6802
 4 3175031003       JAKARTA TIMUR   JATINEGARA  BALI MES…    9752           1920
 5 3175101006       JAKARTA TIMUR   CIPAYUNG    BAMBU AP…   26285           4612
 6 3174031002       JAKARTA SELATAN MAMPANG PR… BANGKA      21566           4346
 7 3175051002       JAKARTA TIMUR   PASAR REBO  BARU        23886           3776
 8 3175041004       JAKARTA TIMUR   KRAMAT JATI BATU AMP…   47898          10985
 9 3171071002       JAKARTA PUSAT   TANAH ABANG BENDUNGA…   21494           4187
10 3175031002       JAKARTA TIMUR   JATINEGARA  BIDARA C…   36689           8447
# ℹ 257 more rows
# ℹ 1 more variable: date <chr>

[[5]]
# A tibble: 267 × 7
   `KODE KELURAHAN` `WILAYAH KOTA`  KECAMATAN   KELURAHAN SASARAN `BELUM VAKSIN`
   <chr>            <chr>           <chr>       <chr>       <dbl>          <dbl>
 1 3172051003       JAKARTA UTARA   PADEMANGAN  ANCOL       23947           6688
 2 3173041007       JAKARTA BARAT   TAMBORA     ANGKE       29381           7581
 3 3175041005       JAKARTA TIMUR   KRAMAT JATI BALE KAM…   29074           8708
 4 3175031003       JAKARTA TIMUR   JATINEGARA  BALI MES…    9752           2517
 5 3175101006       JAKARTA TIMUR   CIPAYUNG    BAMBU AP…   26285           6252
 6 3174031002       JAKARTA SELATAN MAMPANG PR… BANGKA      21566           5785
 7 3175051002       JAKARTA TIMUR   PASAR REBO  BARU        23886           4899
 8 3175041004       JAKARTA TIMUR   KRAMAT JATI BATU AMP…   47898          14105
 9 3171071002       JAKARTA PUSAT   TANAH ABANG BENDUNGA…   21494           5239
10 3175031002       JAKARTA TIMUR   JATINEGARA  BIDARA C…   36689          10626
# ℹ 257 more rows
# ℹ 1 more variable: date <chr>

[[6]]
# A tibble: 267 × 7
   `KODE KELURAHAN` `WILAYAH KOTA`  KECAMATAN   KELURAHAN SASARAN `BELUM VAKSIN`
   <chr>            <chr>           <chr>       <chr>       <dbl>          <dbl>
 1 3172051003       JAKARTA UTARA   PADEMANGAN  ANCOL       23947           9191
 2 3173041007       JAKARTA BARAT   TAMBORA     ANGKE       29381          10400
 3 3175041005       JAKARTA TIMUR   KRAMAT JATI BALE KAM…   29074          12510
 4 3175031003       JAKARTA TIMUR   JATINEGARA  BALI MES…    9752           3704
 5 3175101006       JAKARTA TIMUR   CIPAYUNG    BAMBU AP…   26285           9416
 6 3174031002       JAKARTA SELATAN MAMPANG PR… BANGKA      21566           8345
 7 3175051002       JAKARTA TIMUR   PASAR REBO  BARU        23886           7751
 8 3175041004       JAKARTA TIMUR   KRAMAT JATI BATU AMP…   47898          19908
 9 3171071002       JAKARTA PUSAT   TANAH ABANG BENDUNGA…   21494           8033
10 3175031002       JAKARTA TIMUR   JATINEGARA  BIDARA C…   36689          15563
# ℹ 257 more rows
# ℹ 1 more variable: date <chr>
…
