IS415: Geospatial Analytics & Applications - Take Home Exercise 1: Spatial Point Pattern Analysis on distribution of water points in Osun State, Nigeria
…
7.1 Importing water point data

Read the csv of water point locations found in Nigeria, filtering by the column name #clean_country_name.

wp_nga <- read_csv("data/aspatial/WPdx-P.csv") %>%
  filter(`#clean_country_name` == "Nigeria")

7.2 Converting aspatial data into sf dataframe

This step ensures that the water point dataset is given a geometry column named New Georeferenced Column.

wp_nga$Geometry = st_as_sfc(wp_nga$`New Georeferenced Column`)
wp_nga

# A tibble: 97,478 × 75
   row_id `#source`            `#lat_deg` `#lon_deg` `#report_date` `#status_id`
    <dbl> <chr>                     <dbl>      <dbl> <chr>          <chr>       
 1 158721 Federal Ministry of…       5.07       6.62 02/19/2015 12… Yes         
 2 158892 Federal Ministry of…       5.09       7.09 02/06/2015 12… Yes         
 3 323117 Federal Ministry of…       5.91       8.77 08/31/2015 12… Yes         
 4 300176 Federal Ministry of…       5.23       7.32 05/17/2015 12… Yes         
 5 324346 Federal Ministry of…       6.88       3.36 08/17/2015 12… Yes         
 6 297273 Federal Ministry of…       6.59       3.29 05/26/2015 12… Yes         
 7 296853 Federal Ministry of…       6.60       3.26 06/02/2015 12… Yes         
 8 323866 Federal Ministry of…       6.20       6.73 09/18/2015 12… Yes         
 9 297044 Federal Ministry of…       6.61       3.30 05/26/2015 12… Yes         
10 324321 Federal Ministry of…       6.96       3.60 08/16/2015 12… Yes         
# ℹ 97,468 more rows
# ℹ 69 more variables: `#water_source_clean` <chr>,
#   `#water_source_category` <chr>, `#water_tech_clean` <chr>,
#   `#water_tech_category` <chr>, `#facility_type` <chr>,
#   `#clean_country_name` <chr>, `#clean_adm1` <chr>, `#clean_adm2` <chr>,
#   `#clean_adm3` <chr>, `#clean_adm4` <chr>, `#install_year` <dbl>,
#   `#installer` <chr>, `#rehab_year` <lgl>, `#rehabilitator` <lgl>, …

We need to include a referencing system for the create sf object wp_nga.

wp_sf <- st_sf(wp_nga, crs=4326)
wp_sf

Simple feature collection with 97478 features and 74 fields
Geometry type: POINT
Dimension:     XY
Bounding box:  xmin: 2.707441 ymin: 4.301812 xmax: 14.21828 ymax: 13.86568
Geodetic CRS:  WGS 84
# A tibble: 97,478 × 75
   row_id `#source`            `#lat_deg` `#lon_deg` `#report_date` `#status_id`
 *  <dbl> <chr>                     <dbl>      <dbl> <chr>          <chr>       
 1 158721 Federal Ministry of…       5.07       6.62 02/19/2015 12… Yes         
 2 158892 Federal Ministry of…       5.09       7.09 02/06/2015 12… Yes         
 3 323117 Federal Ministry of…       5.91       8.77 08/31/2015 12… Yes         
 4 300176 Federal Ministry of…       5.23       7.32 05/17/2015 12… Yes         
 5 324346 Federal Ministry of…       6.88       3.36 08/17/2015 12… Yes         
 6 297273 Federal Ministry of…       6.59       3.29 05/26/2015 12… Yes         
 7 296853 Federal Ministry of…       6.60       3.26 06/02/2015 12… Yes         
 8 323866 Federal Ministry of…       6.20       6.73 09/18/2015 12… Yes         
 9 297044 Federal Ministry of…       6.61       3.30 05/26/2015 12… Yes         
10 324321 Federal Ministry of…       6.96       3.60 08/16/2015 12… Yes         
# ℹ 97,468 more rows
# ℹ 69 more variables: `#water_source_clean` <chr>,
#   `#water_source_category` <chr>, `#water_tech_clean` <chr>,
#   `#water_tech_category` <chr>, `#facility_type` <chr>,
#   `#clean_country_name` <chr>, `#clean_adm1` <chr>, `#clean_adm2` <chr>,
#   `#clean_adm3` <chr>, `#clean_adm4` <chr>, `#install_year` <dbl>,
#   `#installer` <chr>, `#rehab_year` <lgl>, `#rehabilitator` <lgl>, …
We then transform the sf object using the appropriate CRS for Osun state.

wp_sf <- wp_sf %>% st_transform(crs=26391)

Filter the water points found in Osun state using the #clean_adm1 column.

wp_osun <- wp_sf %>% filter(`#clean_adm1` == "Osun")
wp_osun

Simple feature collection with 5745 features and 74 fields
Geometry type: POINT
Dimension:     XY
Bounding box:  xmin: 179198.9 ymin: 338261.8 xmax: 292542.7 ymax: 449013.7
Projected CRS: Minna / Nigeria West Belt
# A tibble: 5,745 × 75
   row_id `#source`            `#lat_deg` `#lon_deg` `#report_date` `#status_id`
 *  <dbl> <chr>                     <dbl>      <dbl> <chr>          <chr>       
 1 225950 Federal Ministry of…       7.43       4.26 05/05/2015 12… Yes         
 2 225524 Federal Ministry of…       7.78       4.56 04/22/2015 12… Yes         
 3 197014 Federal Ministry of…       7.49       4.53 04/30/2015 12… Yes         
 4 225173 Federal Ministry of…       7.93       4.73 05/02/2015 12… Yes         
 5 225843 Federal Ministry of…       7.74       4.44 05/08/2015 12… Yes         
 6 235508 Federal Ministry of…       7.15       4.64 04/27/2015 12… Yes         
 7 197708 Federal Ministry of…       7.87       4.72 05/13/2015 12… Yes         
 8 195041 Federal Ministry of…       7.73       4.45 06/17/2015 12… Yes         
 9 225222 Federal Ministry of…       7.81       4.15 05/14/2015 12… Yes         
10 460770 GRID3                      7.4        4.33 06/13/2018 12… Unknown     
# ℹ 5,735 more rows
# ℹ 69 more variables: `#water_source_clean` <chr>,
#   `#water_source_category` <chr>, `#water_tech_clean` <chr>,
#   `#water_tech_category` <chr>, `#facility_type` <chr>,
#   `#clean_country_name` <chr>, `#clean_adm1` <chr>, `#clean_adm2` <chr>,
#   `#clean_adm3` <chr>, `#clean_adm4` <chr>, `#install_year` <dbl>,
#   `#installer` <chr>, `#rehab_year` <lgl>, `#rehabilitator` <lgl>, …
…
